\relax 
\@nameuse{bbl@beforestart}
\babel@aux{nil}{}
\@writefile{toc}{\contentsline {section}{\numberline {1}TD 1}{2}\protected@file@percent }
\@writefile{toc}{\contentsline {subsection}{\numberline {1.1}Machine d'Alexandre}{2}\protected@file@percent }
\@writefile{toc}{\contentsline {subsection}{\numberline {1.2}Machine de Julien}{2}\protected@file@percent }
\@writefile{toc}{\contentsline {subsection}{\numberline {1.3}Machine de Romain}{3}\protected@file@percent }
\@writefile{toc}{\contentsline {section}{\numberline {2}Test des programme de matrices}{4}\protected@file@percent }
\@writefile{toc}{\contentsline {section}{\numberline {3}TP 1 - Polynome}{5}\protected@file@percent }
\@writefile{toc}{\contentsline {subsection}{\numberline {3.1}Fonctions Polynome}{5}\protected@file@percent }
\@writefile{toc}{\contentsline {subsection}{\numberline {3.2}Fonctions Polynome creux}{5}\protected@file@percent }
\@writefile{toc}{\contentsline {subsection}{\numberline {3.3}Performance}{5}\protected@file@percent }
\@writefile{toc}{\contentsline {section}{\numberline {4}Conclusion}{6}\protected@file@percent }
